anho;mes;descripcion_mes;cantidad_hombres;cantidad_mujeres;total_mes
2016;9;SEPTIEMBRE;13;9;22
2016;11;NOVIEMBRE;1;0;1
2016;12;DICIEMBRE;13;5;18
2017;1;ENERO;1;0;1
2017;2;FEBRERO;1;0;1
2017;3;MARZO;3;7;10
2017;5;MAYO;2;0;2
2017;8;AGOSTO;1;0;1
2017;10;OCTUBRE;0;1;1
2018;5;MAYO;1;0;1
2018;6;JUNIO;26;20;46
2018;7;JULIO;1117;645;1762
2018;8;AGOSTO;813;479;1292
2018;9;SEPTIEMBRE;444;318;762
2018;10;OCTUBRE;314;266;580
2018;11;NOVIEMBRE;278;186;464
2018;12;DICIEMBRE;794;631;1425
2019;1;ENERO;2415;1778;4193
2019;2;FEBRERO;1273;1300;2573
2019;3;MARZO;639;620;1259
2019;4;ABRIL;602;549;1151
2019;5;MAYO;288;255;543
2019;6;JUNIO;302;214;516
2019;7;JULIO;338;301;639
2019;8;AGOSTO;283;278;561
2019;9;SEPTIEMBRE;459;364;823
2019;10;OCTUBRE;510;491;1001
2019;11;NOVIEMBRE;443;406;849
2019;12;DICIEMBRE;364;280;644
2020;1;ENERO;548;518;1066
2020;2;FEBRERO;499;513;1012
2020;3;MARZO;803;638;1441
2020;4;ABRIL;596;506;1102
2020;5;MAYO;375;391;766
2020;6;JUNIO;400;341;741
2020;7;JULIO;513;518;1031
2020;8;AGOSTO;398;409;807
2020;9;SEPTIEMBRE;381;400;781
2020;10;OCTUBRE;6414;5690;12104
2020;11;NOVIEMBRE;5039;5072;10111
2020;12;DICIEMBRE;4350;4353;8703
2021;1;ENERO;7059;6696;13755
2021;2;FEBRERO;7065;7372;14437
2021;3;MARZO;7133;7714;14847
2021;4;ABRIL;7250;7363;14613
2021;5;MAYO;7009;6455;13464
2021;6;JUNIO;7419;7327;14746
2021;7;JULIO;8649;7611;16260
2021;8;AGOSTO;8616;8035;16651
2021;9;SEPTIEMBRE;8278;8860;17138
2021;10;OCTUBRE;8046;8961;17007
2021;11;NOVIEMBRE;10324;12366;22690
2021;12;DICIEMBRE;8489;9785;18274
2022;1;ENERO;10254;10941;21195
2022;2;FEBRERO;10127;12488;22615
2022;3;MARZO;10519;12507;23026
2022;4;ABRIL;7679;8442;16121
2022;5;MAYO;8083;8700;16783
2022;6;JUNIO;8803;9677;18480
2022;7;JULIO;8768;10202;18970
2022;8;AGOSTO;8679;9219;17898
2022;9;SEPTIEMBRE;8524;9275;17799
2022;10;OCTUBRE;7820;8125;15945
2022;11;NOVIEMBRE;8065;8835;16900
2022;12;DICIEMBRE;7219;8216;15435
